999978 554113 525
63679 512716 470
816780 23379 509
593934 816325 509
144461 191595 383
375709 246509 441
187952 682927 509
831812 128528 509
652999 166147 509
691800 335077 509
86512 344820 443
289941 633399 509
561681 367400 470
718746 345744 509
525470 527177 408
964340 900218 507
918923 269949 525
643239 432821 509
968836 422416 525
670529 846182 525
826143 892801 525
836742 499523 509
920291 50890 525
688108 359555 509
336618 268613 407
543088 483399 470
691218 640201 442
305202 315159 384
415394 706110 509
434682 893035 525
539585 574816 452
705866 545449 509
603939 238315 470
900170 780053 525
224777 210099 386
935451 914877 476
261030 840230 525
451713 396476 449
327475 693269 509
343716 213400 443
585346 79418 470
507819 652939 509
703610 218134 509
102065 296943 443
806203 33305 509
238515 553984 470
159659 596429 470
910665 551121 525
188513 913020 525
902501 301403 525
350011 151434 443
631607 216931 509
903028 329502 525
574836 495226 470
563322 818552 509
343974 529386 470
730247 954369 525
230102 197593 386
313845 907209 525
817919 433826 509
798972 434531 509
668208 228061 509
268311 227918 443
861829 412561 525
691447 606495 509
614422 718396 509
382942 523218 470
278676 819788 509
212522 191303 373
420957 139807 449
981732 430652 525
746722 775351 468
922387 528010 525
414642 285805 449
393859 555580 470
837636 612049 509
200419 80248 383
271316 322149 389
326711 477912 449
396869 46313 443
156346 201619 370
703180 512794 509
582660 263964 470
823155 171909 509
692646 349403 509
135935 22809 354
264621 180972 443
597661 707381 509
441250 690687 509
491602 720726 509
988773 52292 525
23809 333340 443
150284 399675 443
498493 397800 449
542881 808319 509
197188 882068 525
393531 85533 443
443974 829930 509
382421 351043 423
753323 710021 424
791380 590646 509
384546 530462 470
699047 546244 509
44592 541956 470
348820 349968 366
242929 655148 509
423092 269795 449
346004 850902 525
723133 630753 504
973808 699401 525
271332 415274 449
655466 931270 525
726021 265133 509
349621 186290 443
102525 287741 443
98546 236852 443
138301 525092 470
772293 977418 525
997181 456387 525
368054 804097 509
640651 57242 509
397610 352798 436
161591 814186 509
173566 477464 449
236234 79137 443
664777 277172 509
914498 426021 525
594619 797125 509
566411 313485 470
270059 357564 441
668149 738114 504
77618 392136 443
263319 744044 509
786875 545254 509
287936 786968 509
710691 671826 504
740006 194262 509
906459 283755 525
563984 428195 470
328091 505596 449
431369 486159 444
972795 232041 525
938792 201085 525
203995 858956 525
932640 149761 525
598285 705678 509
576619 362817 470
610927 320413 470
207831 356590 443
950345 302988 525
749204 285919 509
913321 520438 525
222351 287725 443
631183 711866 504
75019 534429 470
645824 953782 525
442558 114823 449
866314 735112 525
428525 236814 449
862669 588620 525
220736 703234 509
480493 164616 449
894791 306898 525
38310 677074 509
21257 58866 340
92972 979840 525
707871 763869 424
529478 523174 408
802571 633026 504
746225 294857 509
866751 169690 525
150387 461082 449
62231 505770 449
494602 658507 509
555844 234789 470
565921 35723 470
607742 333565 470
156740 649762 509
463688 449631 444
772963 34434 509
709664 946767 525
504885 682318 509
80573 727905 509
33315 523863 470
79329 573565 470
594616 721527 509
119993 107186 349
184613 175898 365
541132 676893 509
756167 888394 525
209026 828636 509
284859 70875 443
788227 895328 525
97016 902610 525
455838 844276 525
537566 60264 470
525707 894606 525
754252 3069 509
540969 720058 509
251389 515033 470
613139 965959 525
645219 791670 504
940213 605170 525
159554 647786 509
787853 468599 509
153505 172271 383
275573 323754 389
126175 963959 525
421175 885359 525
764899 887584 525
641854 527379 509
112521 386048 443
507987 680947 509
334433 729239 509
877428 339454 525
840749 547010 525
465760 808643 509
747028 650914 504
551345 948491 525
567055 913845 525
436638 532298 470
327022 546639 470
586016 900125 525
117901 491012 449
9469 636431 509
897855 539544 525
289494 207339 443
72409 36035 340
155500 659876 509
42464 706638 509
86524 552914 470
997434 585349 525
820888 95201 509
638643 899603 525
637203 328407 509
144145 564246 470
588260 659778 509
485210 899760 525
105706 105203 310
124217 877268 525
38229 212669 383
652011 764875 504
238703 706914 509
302219 235930 407
801652 753789 468
179232 846470 525
551098 312465 470
678926 683189 367
975212 802774 525
352235 917389 525
497655 506043 426
279540 426590 449
957468 818232 525
148097 87937 375
121834 959898 525
515695 43602 470
18924 837599 509
894935 539730 525
258204 191507 443
990046 732946 525
469076 511684 426
702764 854816 525
553465 558715 421
531261 608964 452
847107 418448 525
523478 346777 470
107938 460875 449
861535 615175 525
50594 323214 443
555212 351856 470
52718 87437 351
989954 542621 525
960394 740569 525
469876 400990 449
103512 154800 375
634 32620 308
519814 89583 470
347753 338683 441
497678 642371 509
442067 111008 449
138066 574316 470
194362 167460 365
816202 828818 450
829142 378899 509
457805 839507 525
265901 278951 407
629717 503580 509
587171 642968 509
683749 128598 509
470071 598448 470
246068 451182 449
143719 557708 470
298877 972361 525
800730 893875 525
475888 399605 449
896567 991908 507
540303 92659 470
204215 112604 383
127583 116751 336
653146 427520 509
