984910 832953 525
413258 191894 449
624137 848165 525
313170 499188 449
548010 791917 509
423437 526560 470
460730 238693 449
77375 529684 470
769679 603539 509
149361 176424 383
448855 878347 525
434510 565839 470
378684 630807 509
302368 393674 441
145041 813601 509
166370 750308 509
296841 147891 443
623209 520252 452
313110 681083 509
41170 353746 443
756103 757772 362
624206 458349 470
990340 361019 525
235298 800219 509
502178 130051 449
243938 185252 443
462660 858835 525
51729 751023 509
312104 916069 525
816550 290230 509
445350 411498 418
120266 401524 443
203658 816304 509
203968 825047 509
902287 216233 525
306766 395999 441
297142 454092 449
847431 336831 525
825082 475440 509
208080 947145 525
561001 397948 470
692841 683847 442
561460 97699 470
509439 756231 509
616611 365459 470
952176 976138 458
343324 698077 509
924658 625868 525
71204 484272 449
919119 722242 525
135022 6322 354
592546 553267 434
24640 578812 470
16749 328636 443
612481 103704 470
394112 434078 449
147432 311655 443
79163 93558 333
739612 667885 504
751926 638048 504
18032 279592 443
920182 50504 525
797656 340134 509
598534 30624 470
511594 261334 449
399554 713322 509
610278 893163 525
607021 806114 509
252207 235490 368
487467 366411 449
62150 316502 443
930399 674768 525
559590 785582 509
179543 398609 443
557755 721373 509
369540 989540 525
114313 384547 443
25733 544019 470
843639 860870 419
20756 187629 383
692026 171799 509
49960 197638 383
213635 427903 449
256802 43526 443
501442 119753 449
956477 426095 525
85009 293061 443
380964 682526 509
527437 854978 525
868966 974175 507
821768 382547 509
978427 455714 525
260212 893577 525
586070 150636 470
642780 342840 509
275141 134523 443
839946 136295 525
858985 41795 525
413098 769648 509
990376 1334 525
777633 82036 509
331206 73836 443
829496 102723 509
577976 983993 525
991086 231656 525
438167 318615 449
415811 529386 470
213194 995388 525
41845 602174 470
290534 457214 449
228565 178444 386
860991 628818 525
879885 263368 525
323828 287191 389
148157 584606 470
376 651581 509
717671 613111 509
880879 456702 525
544291 655399 509
330867 783689 509
971105 761567 525
92353 833445 509
384188 926115 525
519103 277947 470
451566 615334 470
444324 644691 509
963251 813861 525
566267 678818 509
504480 376526 449
52526 592611 470
416925 392947 449
150181 148027 370
523916 823349 509
705843 966082 525
185481 469716 449
766912 950335 525
881768 400750 525
246651 287710 407
41453 148516 375
672980 759793 504
82527 422068 449
481887 546505 470
631955 521023 509
32537 793655 509
273265 643726 509
67474 876379 525
999006 103755 525
596002 364535 470
919458 876998 476
273047 197014 443
177807 762195 509
253238 36596 443
153412 337535 443
822185 986693 525
476437 178124 449
862863 558921 525
982718 783616 525
887516 562148 525
898528 422962 525
319080 809197 509
231638 230140 443
115976 664916 509
870500 671381 525
282070 598651 470
117767 88242 354
19603 216298 383
6628 703557 509
800339 683395 504
734329 111014 509
758193 835349 468
601735 793875 509
759383 950175 525
787695 814473 468
844295 358735 525
889889 848641 445
739857 504761 509
430828 538365 470
183618 64634 383
372277 262937 441
262721 997890 525
854502 738239 525
401507 767426 509
132895 336655 443
201539 418163 449
967901 927014 507
425122 151528 449
238233 549798 470
541670 227292 470
248311 264987 407
425312 864387 525
751174 960085 525
122384 542485 470
727128 389407 509
592595 582271 434
98244 692834 509
509451 65304 449
871228 839377 419
638028 505883 509
817371 693112 504
239351 684443 509
584242 933965 525
993359 695808 525
213881 983954 525
556719 204059 470
285041 813756 509
572560 332451 470
567346 504111 470
444910 74493 449
492149 727361 509
35009 832216 509
807988 301616 509
298153 723647 509
523054 437542 470
492908 946352 525
931299 214677 525
