572646 219188 470
974222 755207 525
124321 93505 354
790250 31956 509
952689 814329 525
538557 994278 525
462047 91752 449
802836 943747 525
91064 822257 509
389699 63667 443
689941 152510 509
864674 933631 476
189099 808266 509
943633 920322 507
902114 320090 525
285215 931426 525
158687 611083 470
866087 450602 525
887235 57999 525
356512 876605 525
453941 622141 470
715570 51568 509
32892 540029 470
314745 113240 443
558303 251065 470
382412 492532 449
647662 546129 509
601638 73837 470
367708 747015 509
150064 256668 443
441578 586144 470
475011 978675 525
509185 401222 449
575328 204870 470
805224 563312 509
782523 643537 504
312505 659554 509
487727 848944 525
530274 416235 470
67626 683720 509
434064 734442 509
322489 68243 443
898017 704485 525
829220 436897 509
834486 539765 509
621840 177258 470
522941 715629 509
301504 804801 509
957286 879092 507
876271 640456 525
148911 489849 449
925240 76521 525
533773 8366 470
260121 763586 509
411949 31670 449
579902 360608 470
52093 56856 340
771795 185424 509
990861 976287 427
738030 765890 424
758210 49875 509
669224 980532 525
764186 338269 509
273552 840834 525
525875 252530 470
545421 695762 509
292832 122128 443
829476 232995 509
297448 456095 449
488489 708793 509
784793 618766 509
394891 390005 405
815424 522791 509
587122 734755 509
764066 497612 509
887023 73523 525
570923 627569 509
392419 698894 509
382898 36862 443
555498 633899 509
360928 330751 441
27641 938294 525
179700 419715 449
480850 465825 413
789841 155309 509
303224 818999 509
152178 549291 470
310893 140414 443
885835 580502 525
440531 887839 525
595193 270920 470
989639 834407 525
511255 791624 509
828690 840943 525
592045 177349 470
48170 249277 443
215192 544202 470
72799 249107 443
281289 587013 470
126197 249607 443
35146 935978 525
264516 277652 407
34063 436725 449
991352 959662 458
148573 925102 525
703214 794237 504
799581 177180 509
741791 870136 525
407972 428955 449
81993 498751 449
116765 384986 443
31500 203868 383
902756 741025 525
419914 521113 470
751745 58671 509
858472 743010 525
85121 118349 354
538251 386611 470
85579 619408 470
210165 102569 383
52086 151527 375
357664 791633 509
405567 964259 525
859760 159050 525
965161 544219 525
198383 889813 525
976977 479323 525
84784 411450 449
678948 953852 525
800701 113293 509
896086 562331 525
290097 206688 443
573653 86508 470
236548 368508 441
955514 128434 525
313779 93987 443
700764 630654 442
822692 675650 504
775632 751703 468
887792 673946 525
708663 767580 424
246809 192333 443
128121 78291 354
667244 305515 509
801955 172940 509
508104 596076 470
749696 19226 509
958836 265956 525
375345 725775 509
699802 182497 509
167331 904272 525
961966 15805 525
220375 734564 509
110907 530878 470
460375 189867 449
508612 978014 525
839585 502281 525
260513 694824 509
500477 372044 449
491920 120883 449
695311 286189 509
193326 764883 509
69201 1030 340
412 511883 449
419793 464519 444
358806 809696 509
577717 884971 525
270001 36254 443
345768 747499 509
442835 106688 449
476947 150467 449
118548 764690 509
211008 719714 509
629135 194112 509
315969 143794 443
750135 642430 504
766650 264708 509
490751 161437 449
737244 533204 509
999511 776561 525
502388 209828 449
123124 329722 443
494701 461552 426
796339 888744 525
303056 861175 525
770860 537979 509
783355 171857 509
186000 253075 443
40894 715925 509
49662 32028 324
51058 136105 354
246215 853476 525
524598 593779 452
912823 827624 525
979353 571321 525
837595 648659 504
907272 404117 525
714974 197237 509
186468 228351 386
176324 304304 443
64240 364401 443
657177 332691 509
80093 957360 525
938107 877861 476
314236 284911 389
774983 25566 509
753667 862403 525
912274 549698 525
56187 844590 525
481597 705496 509
63265 696911 509
850083 26593 525
539772 971944 525
315485 556877 470
555453 785157 509
839365 307238 525
108777 650984 509
105209 227342 386
740892 724521 424
567192 565861 359
334932 769349 509
750293 555197 509
340555 392664 441
804841 464271 509
631852 142177 509
135885 476679 449
646229 423076 509
235262 876929 525
143287 211562 383
605426 473803 470
831957 425592 509
312089 898225 525
973207 210063 525
518007 176033 470
708095 577681 509
989254 570831 525
310810 193185 443
87538 162762 383
917378 442869 525
341697 52012 443
47257 538559 470
224683 992293 525
658251 140655 509
439176 598554 470
697077 433092 509
313043 515269 470
290340 372674 441
683981 55682 509
88068 608818 470
578705 371550 470
