97744 310939 443
842866 57855 525
981076 178764 525
493872 796464 509
450823 575208 470
496424 125980 449
162360 545483 470
517531 117716 470
994349 762409 525
120795 144704 375
758600 241560 509
324304 359569 441
223030 676200 509
297024 565195 470
174259 981516 525
418241 631989 509
653082 159428 509
406847 949045 525
443119 944085 525
226889 359250 443
85327 770129 509
146487 110112 375
468642 526375 470
148910 449719 449
45963 127786 354
130096 830331 509
752556 367233 509
816037 554796 509
348416 880262 525
406108 280977 441
449608 787763 509
685644 217044 509
929315 967750 507
533898 268196 470
466022 351302 449
91015 772756 509
96517 298501 443
12607 945581 525
994214 191197 525
24927 396044 443
977627 246923 525
676452 283636 509
299214 195355 443
155898 528141 470
539146 362770 470
661614 563225 509
426515 184583 449
320785 993341 525
458319 326842 449
991560 339403 525
37481 754506 509
429334 704498 509
711366 687553 504
872407 557267 525
801945 912574 525
410252 391568 449
7065 832270 509
388913 646109 509
685618 390373 509
31521 985138 525
105962 507834 449
446040 826174 509
529886 267661 470
53850 53362 322
565501 267705 470
779681 977821 525
853768 106834 525
593670 980199 525
904002 262599 525
69152 111536 354
844284 29674 525
372269 982424 525
52724 712426 509
719778 541452 509
406900 728541 509
529348 624612 452
242598 582495 470
356426 474048 449
909450 757313 525
588039 423568 470
511772 254160 449
330319 164619 443
345244 207788 443
409394 272996 441
196830 262527 443
898418 149260 525
475551 443593 444
382689 284076 441
568171 735446 509
533984 668914 509
306687 190836 443
607184 567649 434
283823 783647 509
496426 359026 449
3364 173777 383
500609 350021 449
19361 792166 509
38803 750497 509
415400 424366 418
259413 66810 443
156792 818368 509
972958 266853 525
346285 499493 449
644747 914335 525
161664 24120 383
954801 379751 525
49991 908630 525
408992 167266 443
740208 799164 468
120961 679367 509
653592 969672 525
717852 113977 509
675486 528757 509
988078 338750 525
193960 760900 509
470472 214234 449
363256 95329 443
236384 756428 509
308201 703323 509
939169 905188 476
642795 20623 509
958801 89362 525
967302 564542 525
916409 493863 525
332007 296310 384
139700 507545 449
966229 225156 525
167170 213587 373
55700 944104 525
294137 690732 509
691016 681881 398
284118 164800 443
633037 998408 525
4961 975642 525
752107 344924 509
546496 323795 470
105325 511054 449
683841 804813 504
242633 99890 443
871026 191039 525
759882 515245 509
962422 33349 525
383352 213542 443
136737 699950 509
18990 346097 443
698296 348889 509
178441 112000 383
827570 870212 525
911221 421776 525
805126 228698 509
303248 9701 443
165017 1852 383
880879 784796 525
98991 84594 333
4552 17770 279
746166 359346 509
605572 145122 470
54853 761030 509
455455 307394 449
143613 424540 449
180615 242268 443
293397 86305 443
472881 452750 444
79001 811465 509
960789 465720 525
418431 724499 509
915572 779925 525
910143 850745 476
698763 639029 442
767532 11744 509
361514 407477 436
741359 639635 504
920573 555366 525
419477 489523 444
750952 478651 509
285965 976645 525
840203 546780 525
592337 599425 372
229003 778238 509
928486 15812 525
975776 84338 525
370869 682635 509
690414 93654 509
293512 782772 509
671538 37812 509
311733 312165 278
693438 280561 509
678650 849006 525
765648 689411 504
660540 419542 509
487955 62475 449
108583 371948 443
940104 248473 525
550653 461190 470
272666 683029 509
915781 815964 525
518699 312722 470
559921 888156 525
148307 433824 449
15497 946707 525
467931 435245 444
87206 187061 383
872326 328487 525
417410 742464 509
2332 195933 383
594401 268034 470
873306 919871 476
484792 436810 444
889953 421941 525
670871 311653 509
903956 259931 525
401224 953125 525
676480 5798 509
837920 831303 525
478240 348421 449
132451 772175 509
911023 950481 507
100541 914303 525
793073 603980 509
199290 349156 443
206391 957707 525
446305 694218 509
569126 217854 470
514996 687622 509
162961 738020 509
356721 381633 423
861071 27793 525
104462 862053 525
348288 808115 509
295111 226442 443
967137 251766 525
415155 608519 470
10190 864534 525
932724 839527 476
323817 531524 470
828802 511607 509
845393 245281 525
502811 45487 449
834923 45987 509
281461 33365 443
383758 435840 449
590313 548050 434
564451 346874 470
233020 920465 525
141607 564304 470
280234 671290 509
594265 226978 470
579932 148123 470
350041 932629 525
852308 835308 525
